Application to Probability of Success • oncomsm
…
tbl_prior_predictive <- sample_predictive(
    mdl,
    n_per_group = rep(40L, 2),
    sample = smpl_prior,
    nsim = 100L, # same, here, only for demonstration purposes
    seed = 34930L
  ) %>%
  group_by(iter) %>%
  tidyr::nest() %>%
  ungroup()
print(tbl_prior_predictive)
#> # A tibble: 100 × 2
#>     iter data              
#>    <int> <list>            
#>  1     1 <tibble [105 × 7]>
#>  2     2 <tibble [115 × 7]>
#>  3     3 <tibble [100 × 7]>
#>  4     4 <tibble [104 × 7]>
#>  5     5 <tibble [153 × 7]>
#>  6     6 <tibble [119 × 7]>
#>  7     7 <tibble [142 × 7]>
#>  8     8 <tibble [106 × 7]>
#>  9     9 <tibble [120 × 7]>
#> 10    10 <tibble [119 × 7]>
#> # … with 90 more rows
…
  median_time_to_next_event = matrix(c(
     4, 8, 24,
     4, 8, 24
  ), byrow = TRUE, nrow = 2, ncol = 3),
  median_time_to_next_event_sd = matrix(0.1, byrow = TRUE, nrow = 2, ncol = 3),
  visit_spacing = c(1.2, 1.2)
)
# sample single realization
tbl_data <- generate_visit_data(
    mdl_point,
    n_per_group = c(40L, 40L),
    recruitment_rate = c(40 / 24, 40 / 24) # recruit in 24 months
  )
print(tbl_data)
#> # A tibble: 1,663 × 4
#>    subject_id group_id       t state   
#>    <chr>      <chr>      <dbl> <chr>   
#>  1 1          A         0.0525 stable  
#>  2 1          A         1.49   stable  
#>  3 1          A         2.93   stable  
#>  4 1          A         4.37   stable  
#>  5 1          A         5.81   stable  
#>  6 1          A         7.25   stable  
#>  7 1          A         8.45   response
#>  8 1          A         9.73   response
#>  9 1          A        11.0    response
#> 10 1          A        12.3    response
#> # … with 1,653 more rows
…
