Application to Probability of 'go' • oncomsm
…
print(tbl_prior_predictive)
#> # A tibble: 100 × 2
#>     iter data                
#>    <int> <list>              
#>  1     1 <tibble [1,600 × 4]>
#>  2     2 <tibble [1,686 × 4]>
#>  3     3 <tibble [1,083 × 4]>
#>  4     4 <tibble [1,205 × 4]>
#>  5     5 <tibble [911 × 4]>  
#>  6     6 <tibble [1,104 × 4]>
#>  7     7 <tibble [1,200 × 4]>
#>  8     8 <tibble [1,441 × 4]>
#>  9     9 <tibble [1,518 × 4]>
#> 10    10 <tibble [1,059 × 4]>
#> # … with 90 more rows
…
