Sample visits from predictive distribution — impute • oncomsm
…
sample_predictive(mdl, 1L, 20L, seed = 38L)
#> # A tibble: 1,507 × 5
#>    subject_id group_id     t state   iter
#>    <chr>      <chr>    <dbl> <chr>  <int>
#>  1 ID00969187 A         26.7 stable     1
#>  2 ID00969187 A         27.7 stable     1
#>  3 ID00969187 A         28.7 stable     1
#>  4 ID00969187 A         29.7 stable     1
#>  5 ID00969187 A         30.7 stable     1
#>  6 ID00969187 A         31.7 stable     1
#>  7 ID00969187 A         32.7 stable     1
#>  8 ID00969187 A         33.7 stable     1
#>  9 ID00969187 A         34.7 stable     1
#> 10 ID00969187 A         35.7 stable     1
#> # ℹ 1,497 more rows
…
