Application to Probability of Success Calculation • oncomsm
…
tbl_mstate_interim_forward <- bind_rows(tbl_interim, tbl_to_be_recruited)

tbl_posterior_predictive <- impute_predictive(
    mdl,
    data = tbl_mstate_interim_forward, 
    sample = smpl_posterior,
    nsim = 100
  )

tbl_posterior_predictive
#> # A tibble: 7,807 × 8
#>    subject_id                       group…¹ from  to     t_min t_max t_sot  iter
#>    <chr>                            <chr>   <chr> <chr>  <dbl> <dbl> <dbl> <int>
#>  1 2fe5c666-b261-41fb-932f-7077f72… B       stab… prog… 14.7   15.9  0.231     1
#>  2 2fe5c666-b261-41fb-932f-7077f72… B       stab… prog…  0.264  1.46 0.231     2
#>  3 2fe5c666-b261-41fb-932f-7077f72… B       stab… prog… 11.1   12.3  0.231     3
#>  4 2fe5c666-b261-41fb-932f-7077f72… B       stab… resp…  1.46   2.66 0.231     4
#>  5 2fe5c666-b261-41fb-932f-7077f72… B       resp… prog… 11.1   12.3  0.231     4
#>  6 2fe5c666-b261-41fb-932f-7077f72… B       stab… resp…  0.264  1.46 0.231     5
#>  7 2fe5c666-b261-41fb-932f-7077f72… B       resp… prog…  7.46   8.66 0.231     5
#>  8 2fe5c666-b261-41fb-932f-7077f72… B       stab… prog…  3.86   5.06 0.231     6
#>  9 2fe5c666-b261-41fb-932f-7077f72… B       stab… prog…  5.06   6.26 0.231     7
#> 10 2fe5c666-b261-41fb-932f-7077f72… B       stab… prog… 15.9   17.1  0.231     8
#> # … with 7,797 more rows, and abbreviated variable name ¹​group_id
#> # ℹ Use `print(n = ...)` to see more rows
…
