Integration with bhmbasket • oncomsm
…
The Probability of Success at the planning stage can be computed by
sampling from the prior-predictive distribution an then applying the
defined success criterion.

tbl_prior_predictive <- sample_predictive(
    mdl,
    n_per_group = rep(40L, 3),
    nsim = 250L,
    seed = 34930L
  )

tbl_prior_predictive
#> # A tibble: 41,638 × 8
#>    subject_id group_id from     to          t_min t_max t_sot  iter
#>    <chr>      <chr>    <chr>    <chr>       <dbl> <dbl> <dbl> <int>
#>  1 1          A        stable   progression   0     1.2     0     1
#>  2 1          A        stable   progression   2.4   3.6     0     2
#>  3 1          A        stable   response      3.6   4.8     0     3
#>  4 1          A        response progression  15.6  16.8     0     3
#>  5 1          A        stable   response      6     7.2     0     4
#>  6 1          A        response progression  12    13.2     0     4
#>  7 1          A        stable   progression   6     7.2     0     5
#>  8 1          A        stable   progression   8.4   9.6     0     6
#>  9 1          A        stable   response      3.6   4.8     0     7
#> 10 1          A        response progression  18    19.2     0     7
#> # … with 41,628 more rows

Next, the data can be nested by iteration (resample) fo facilitate
further processing on a per-dataset basis.

tbl_prior_predictive <- tbl_prior_predictive %>%
  group_by(iter) %>%
  tidyr::nest() %>%
  ungroup()

tbl_prior_predictive
#> # A tibble: 250 × 2
#>     iter data              
#>    <int> <list>            
#>  1     1 <tibble [174 × 7]>
#>  2     2 <tibble [153 × 7]>
#>  3     3 <tibble [172 × 7]>
#>  4     4 <tibble [161 × 7]>
#>  5     5 <tibble [179 × 7]>
#>  6     6 <tibble [162 × 7]>
#>  7     7 <tibble [193 × 7]>
#>  8     8 <tibble [152 × 7]>
#>  9     9 <tibble [148 × 7]>
#> 10    10 <tibble [168 × 7]>
#> # … with 240 more rows
The success criterion can then be applied to each of the resampled
data sets.

tbl_results <- tbl_prior_predictive %>%
  mutate(
    res = furrr::future_map(
      data, is_success,
      .options = furrr::furrr_options(seed = TRUE)
    )
  ) %>%
  select(-data) %>%
  tidyr::unnest(res)

tbl_results
#> # A tibble: 750 × 3
#>     iter group_id success
#>    <int> <chr>    <lgl>  
#>  1     1 A        FALSE  
#>  2     1 B        TRUE   
#>  3     1 C        TRUE   
#>  4     2 A        FALSE  
#>  5     2 B        FALSE  
#>  6     2 C        FALSE  
#>  7     3 A        TRUE   
#>  8     3 B        TRUE   
#>  9     3 C        TRUE   
#> 10     4 A        FALSE  
#> # … with 740 more rows
…
