Multi-State Models for Oncology • oncomsm
…
Building a visit data set

Usually, data will come in the form of individual visits, not yet in
the form of interval censored transitions. We can mimic this for the
sake of example by converting one of our prior predictive samples to
visit data. Note that the conversion is not exact since the mstate
format does not contain information about potential visits between the
interval boundaries.

tbl_visits <- tbl_prior_predictive %>%
  filter(iter == 1) %>%
  mstate_to_visits(mdl, .)

print(tbl_visits)
#> # A tibble: 573 × 4
#>    subject_id group_id     t state      
#>    <chr>      <chr>    <dbl> <chr>      
#>  1 1          control    0   stable     
#>  2 1          control    1.2 stable     
#>  3 1          control    2.4 progression
#>  4 10         control    0   stable     
#>  5 10         control    1.2 progression
#>  6 11         control    0   stable     
#>  7 11         control    2.4 stable     
#>  8 11         control    3.6 progression
#>  9 12         control    0   stable     
#> 10 12         control    2.4 stable     
#> # … with 563 more rows
…
