Multi-State Models for Oncology • oncomsm
…
Next, we draw samples from the prior-predictive distribution of the
model. We sample 100 trials with 30 individuals per arm. Here, we can
re-use the sample prior sample already used for plotting.

tbl_prior_predictive <- sample_predictive(
  mdl,
  sample = smpl_prior,
  n_per_group = c(30L, 30L),
  nsim = 100,
  seed = 342
)

print(tbl_prior_predictive, n = 25)
#> # A tibble: 67,938 × 5
#>    subject_id group_id         t state     iter
#>    <chr>      <chr>        <dbl> <chr>    <int>
#>  1 ID00010865 intervention  11.2 stable       1
#>  2 ID00010865 intervention  12.4 stable       1
#>  3 ID00010865 intervention  13.6 stable       1
#>  4 ID00010865 intervention  14.8 response     1
#>  5 ID00010865 intervention  16.0 response     1
#>  6 ID00010865 intervention  17.2 response     1
#>  7 ID00010865 intervention  18.4 response     1
#>  8 ID00010865 intervention  19.6 response     1
#>  9 ID00010865 intervention  20.8 response     1
#> 10 ID00010865 intervention  22.0 response     1
#> 11 ID00010865 intervention  23.2 response     1
#> 12 ID00010865 intervention  24.4 response     1
#> 13 ID00010865 intervention  25.6 response     1
#> 14 ID00010865 intervention  26.8 response     1
#> 15 ID00010865 intervention  28.0 response     1
#> 16 ID00010865 intervention  29.2 response     1
#> 17 ID00010865 intervention  30.4 response     1
#> 18 ID00010865 intervention  31.6 response     1
#> 19 ID00010865 intervention  32.8 response     1
#> 20 ID00010865 intervention  34.0 response     1
#> 21 ID00010865 intervention  35.2 response     1
#> 22 ID00010865 intervention  36.4 response     1
#> 23 ID00010865 intervention  37.6 response     1
#> 24 ID00010865 intervention  38.8 response     1
#> 25 ID00010865 intervention  40.0 response     1
#> # … with 67,913 more rows
…
By default, the prior predictive distribution is given in terms of
panel visit data. The data can be transformed to interval-censored
multi-state representation, (here only first sampled trial).

tbl_mstate <- tbl_prior_predictive %>%
  filter(iter == 1) %>%
  visits_to_mstate(mdl)

tbl_mstate
#> # A tibble: 92 × 7
#>    subject_id group_id     from     to          t_min t_max t_sot
#>    <chr>      <chr>        <chr>    <chr>       <dbl> <dbl> <dbl>
#>  1 ID00010865 intervention stable   response    13.6  14.8  11.2 
#>  2 ID00010865 intervention response progression 55.6  56.8  11.2 
#>  3 ID00019694 intervention stable   progression 33.8  35.0  18.2 
#>  4 ID00294641 intervention stable   progression 28.6  29.8  23.8 
#>  5 ID00559801 intervention stable   response    22.9  24.1  22.9 
#>  6 ID00559801 intervention response progression 43.3  44.5  22.9 
#>  7 ID00827488 control      stable   progression 13.2  14.4   7.19
#>  8 ID01007254 control      stable   response    24.6  25.8  23.4 
#>  9 ID01007254 control      response progression 34.2  35.4  23.4 
#> 10 ID01039842 control      stable   response     1.45  2.65  1.45
#> # … with 82 more rows
…
